{
  "images" : [
    {
      "idiom" : "universal",
      "scale" : "1x"
    },
    {
      "idiom" : "universal",
      "scale" : "2x",
      "filename" : "rsz_1-pavankataria-3.jpg"
    },
    {
      "idiom" : "universal",
      "scale" : "3x",
      "filename" : "Optimized-1-PavanKataria-3.jpg"
    }
  ],
  "info" : {
    "version" : 1,
    "author" : "xcode"
  }
}