{
  "images" : [
    {
      "idiom" : "universal",
      "scale" : "1x"
    },
    {
      "idiom" : "universal",
      "scale" : "2x",
      "filename" : "male208.png"
    },
    {
      "idiom" : "universal",
      "scale" : "3x",
      "filename" : "male208(1).png"
    }
  ],
  "info" : {
    "version" : 1,
    "author" : "xcode",
    "template-rendering-intent" : "template"
  }
}